{
  "data": [
    2.1716201117318437,
    7.804297774366845,
    17.327794242167656,
    30.530772451329288,
    47.493607446046845,
    68.23926568077512,
    92.67006421363776,
    120.88284348621987,
    152.80183486238533,
    188.43039255362203
  ]
}