{
  "task_size": {
    "startValue": 1000,
    "isRange": false,
    "endValue": 1000,
    "step": 1,
    "name": "Task size"
  },
  "cli_args": "-s async -x 100 -n 1000 -m 100 -d 10:1010:100",
  "request_interval_millis": {
    "startValue": 10,
    "isRange": true,
    "endValue": 1010,
    "step": 100,
    "name": "Requests interval"
  },
  "experiment_date_time": "2024-01-24 02:31:41",
  "server_arch": "async",
  "clients_number": {
    "startValue": 100,
    "isRange": false,
    "endValue": 100,
    "step": 1,
    "name": "Clients number"
  },
  "requests_number": 100
}